…
``` r
songs %>% 
  mutate(days=as_date(ymd(`chart date`))) %>% 
  arrange(days)
```

    ## # A tibble: 34,605 x 6
    ##    title      artist     `overall peak` `weeks on chart` `chart date` days      
    ##    <chr>      <chr>               <dbl>            <dbl>        <dbl> <date>    
    ##  1 Playmates  KAY KYSER…              4                1     19400720 1940-07-20
    ##  2 Where Was… CHARLIE B…              6                1     19400720 1940-07-20
    ##  3 Imaginati… TOMMY DOR…              8                1     19400720 1940-07-20
    ##  4 Make-Beli… MITCHELL …             10                1     19400720 1940-07-20
    ##  5 Make-Beli… JAN SAVIT…              8                1     19400727 1940-07-27
    ##  6 Imaginati… GLENN MIL…              3                3     19400803 1940-08-03
    ##  7 Pennsylva… GLENN MIL…              5                6     19400824 1940-08-24
    ##  8 When The … GLENN MIL…             10                1     19400824 1940-08-24
    ##  9 6 Lessons… JIMMY DOR…              7                2     19400831 1940-08-31
    ## 10 Fools Rus… GLENN MIL…              8                2     19400907 1940-09-07
    ## # … with 34,595 more rows
…
``` r
songs %>% 
  mutate(feat=str_extract(artist, pattern="featuring .*")) %>% 
  mutate(featured=str_sub(feat, start=10)) %>% 
  mutate(individual=str_split(featured, pattern=c(", ", "&")))
```

    ## Warning in stri_split_regex(string, pattern, n = n, simplify = simplify, :
    ## longer object length is not a multiple of shorter object length

    ## # A tibble: 34,605 x 8
    ##    title   artist   `overall peak` `weeks on chart` `chart date` feat   featured
    ##    <chr>   <chr>             <dbl>            <dbl>        <dbl> <chr>  <chr>   
    ##  1 Uptown… MARK RO…              1               15     20150307 featu… " BRUNO…
    ##  2 Thinki… ED SHEE…              2               20     20150307 <NA>    <NA>   
    ##  3 Love M… ELLIE G…              3                7     20150307 <NA>    <NA>   
    ##  4 Sugar   MAROON 5              4                6     20150307 <NA>    <NA>   
    ##  5 Take M… HOZIER                2               28     20150307 <NA>    <NA>   
    ##  6 FourFi… RIHANNA…              4                5     20150307 <NA>    <NA>   
    ##  7 Blank … TAYLOR …              1               17     20150307 <NA>    <NA>   
    ##  8 Style   TAYLOR …              8                9     20150307 <NA>    <NA>   
    ##  9 Earned… THE WEE…              9                9     20150307 <NA>    <NA>   
    ## 10 Lips A… MEGHAN …              4               18     20150307 <NA>    <NA>   
    ## # … with 34,595 more rows, and 1 more variable: individual <list>
…
